<?xml version="1.0" standalone="no"?>
<!DOCTYPE svg PUBLIC "-//W3C//DTD SVG 20010904//EN"
 "http://www.w3.org/TR/2001/REC-SVG-20010904/DTD/svg10.dtd">
<svg version="1.0" xmlns="http://www.w3.org/2000/svg"
 width="1280.000000pt" height="814.000000pt" viewBox="0 0 1280.000000 814.000000"
 preserveAspectRatio="xMidYMid meet">
<metadata>
Created by potrace 1.15, written by Peter Selinger 2001-2017
</metadata>
<g transform="translate(0.000000,814.000000) scale(0.100000,-0.100000)"
fill="#f44336" stroke="none">
<path d="M11090 6504 c-52 -7 -169 -25 -260 -38 -91 -14 -235 -35 -320 -46
-85 -12 -209 -30 -275 -40 -66 -10 -158 -23 -205 -30 -47 -6 -139 -20 -205
-30 -146 -23 -253 -38 -320 -45 -27 -3 -95 -13 -150 -21 -107 -16 -1036 -148
-1325 -189 -96 -14 -395 -57 -665 -96 -269 -38 -524 -75 -565 -80 -41 -5 -88
-14 -105 -18 -16 -5 -57 -12 -90 -15 -113 -12 -151 -17 -350 -46 -358 -52
-499 -72 -540 -77 -22 -2 -80 -11 -130 -20 -49 -8 -111 -17 -136 -20 -38 -4
-48 -10 -57 -32 -7 -15 -9 -17 -6 -5 4 19 1 20 -53 17 -65 -5 -509 -66 -1078
-148 -209 -31 -823 -119 -1365 -196 -542 -77 -1043 -149 -1115 -159 -71 -10
-260 -38 -420 -60 -169 -24 -299 -47 -312 -56 -34 -21 -57 -63 -56 -98 0 -17
15 -128 33 -246 17 -118 38 -260 45 -315 24 -177 75 -533 116 -815 22 -151 43
-297 46 -325 2 -27 8 -66 13 -85 5 -19 12 -60 15 -90 4 -30 8 -62 10 -70 6
-39 29 -198 61 -430 77 -564 125 -884 134 -901 17 -31 62 -59 94 -59 32 0 211
24 481 65 88 14 189 29 225 35 36 5 103 14 150 20 116 15 973 137 1085 155
136 21 237 36 291 40 27 3 126 16 219 30 257 38 304 45 380 55 39 5 273 39
520 75 248 36 531 77 630 90 146 21 836 120 975 140 19 3 274 39 565 81 292
42 553 79 582 83 50 7 123 50 123 72 0 5 9 18 20 29 11 11 16 20 11 20 -5 0
-23 -16 -40 -35 -17 -19 -36 -35 -42 -35 -7 0 -5 8 5 19 10 11 15 24 12 30 -8
13 11 51 25 51 6 0 6 -7 -1 -20 -6 -11 -8 -20 -5 -20 9 0 45 39 45 49 0 8 52
31 68 31 3 0 -4 -9 -17 -21 -23 -22 -25 -49 -3 -57 6 -2 12 4 12 14 0 19 60
103 74 104 5 0 3 -7 -4 -15 -6 -8 -9 -19 -5 -25 4 -6 -1 -20 -11 -31 -9 -10
-14 -22 -11 -26 10 -9 60 44 52 57 -3 6 3 10 16 10 18 0 19 -2 9 -15 -10 -12
-9 -15 4 -15 13 0 16 -5 11 -20 -8 -26 3 -25 33 3 l25 22 -12 -22 c-6 -12 -19
-28 -29 -35 -10 -7 -21 -23 -24 -35 -5 -18 -2 -23 15 -24 44 -2 0 -8 532 66
176 25 379 54 450 65 72 11 321 47 555 80 234 32 580 82 770 111 190 28 361
52 380 54 73 6 595 83 640 94 19 5 46 9 59 9 27 1 49 18 36 29 -4 5 -10 2 -12
-4 -3 -7 -14 -13 -26 -13 -21 1 -20 2 7 24 18 15 27 30 23 39 -3 9 5 27 19 42
25 27 29 36 17 34 -20 -3 -24 2 -13 16 9 11 9 15 1 15 -14 0 -43 -66 -43 -98
-1 -36 -48 -51 -77 -23 -13 11 -12 14 2 23 24 13 11 31 -13 18 -13 -7 -19 -6
-24 5 -3 8 -13 15 -21 15 -12 0 -15 6 -10 19 9 30 -13 35 -27 7 -6 -14 -18
-26 -27 -26 -12 0 -12 3 -3 12 7 7 12 18 12 26 0 11 -3 12 -14 3 -17 -15 -29
0 -19 25 5 14 3 16 -13 10 -10 -5 -57 -13 -104 -18 -47 -5 -128 -16 -180 -24
-118 -19 -124 -19 -185 -30 -27 -4 -54 -7 -58 -6 -5 1 -63 -6 -130 -17 -67
-11 -160 -25 -207 -31 -47 -6 -557 -79 -1135 -161 -577 -83 -1097 -157 -1154
-165 -58 -8 -116 -17 -130 -20 -25 -6 -97 -16 -206 -29 -175 -21 -1183 -168
-1242 -181 -40 -8 -77 -13 -81 -10 -5 3 -28 -1 -52 -8 -27 -8 -38 -15 -30 -19
13 -5 13 -7 0 -16 -21 -15 -30 -14 -30 4 0 8 -4 15 -9 15 -20 0 -20 -18 -1
-43 25 -31 25 -40 3 -33 -24 7 -47 -8 -40 -27 3 -9 -1 -21 -10 -29 -13 -10
-17 -10 -20 0 -6 16 -30 16 -36 0 -4 -10 -8 -9 -16 2 -6 9 -7 16 -1 18 16 6
12 22 -5 22 -8 0 -15 -8 -15 -19 0 -25 -48 -57 -63 -42 -8 8 -6 11 5 11 12 0
16 9 16 31 -1 36 28 72 41 51 7 -12 12 -12 30 -1 11 8 21 17 21 21 0 4 7 5 15
2 9 -4 15 0 15 10 0 12 -9 15 -37 13 -21 -1 -43 -6 -50 -10 -6 -4 -14 -3 -17
1 -5 9 -116 -3 -146 -15 -8 -4 -31 -7 -50 -8 -39 -3 -201 -25 -655 -91 -170
-24 -404 -58 -520 -74 -304 -42 -835 -119 -945 -136 -91 -14 -273 -41 -335
-49 -97 -13 -358 -50 -535 -77 -113 -16 -266 -38 -340 -48 -74 -10 -303 -41
-507 -71 -205 -29 -375 -50 -379 -47 -5 6 -38 223 -80 528 -7 58 -21 146 -30
195 -9 50 -18 101 -19 115 -1 14 -3 31 -4 38 0 6 -6 12 -12 12 -6 0 -9 -8 -7
-18 7 -25 -11 -38 -60 -46 l-43 -6 17 25 c9 14 20 25 25 25 5 0 9 7 9 15 0 9
14 24 30 33 30 17 30 18 24 77 -7 70 -109 802 -124 890 -11 63 -40 262 -67
455 -8 63 -33 234 -53 380 -21 146 -38 266 -37 266 3 2 248 38 467 69 148 21
2996 431 3160 455 30 4 96 13 145 20 50 7 119 16 155 21 101 15 122 18 165 23
22 2 114 16 205 30 91 14 181 28 200 30 19 3 71 10 115 16 44 6 206 29 360 51
154 22 316 46 360 54 44 9 103 18 130 21 99 9 225 26 530 70 171 24 375 54
455 65 80 11 269 38 420 60 151 22 383 56 515 74 132 19 317 46 410 60 94 14
211 31 260 37 144 17 162 23 169 58 3 17 11 30 18 30 9 0 9 -3 0 -12 -17 -17
-15 -48 3 -48 8 0 20 9 27 20 7 11 21 20 30 20 9 0 22 8 27 18 9 15 10 14 11
-6 0 -13 4 -21 9 -18 5 4 11 1 13 -6 3 -9 45 -7 174 11 93 13 185 27 205 32
35 9 119 20 149 21 23 0 345 46 480 68 148 24 530 73 535 68 4 -3 31 -176 61
-384 30 -209 56 -390 59 -404 7 -42 15 -101 30 -210 8 -58 21 -156 29 -219 9
-63 23 -150 31 -195 8 -44 17 -103 20 -131 12 -111 27 -226 46 -345 11 -69 24
-156 29 -195 5 -38 14 -97 19 -130 6 -33 15 -96 21 -140 19 -147 79 -570 86
-601 5 -28 3 -32 -26 -42 -28 -10 -30 -13 -17 -27 20 -20 65 -114 69 -144 2
-20 -3 -26 -31 -33 -25 -7 -36 -6 -42 4 -4 7 -11 9 -15 5 -39 -38 213 -23 263
16 46 37 54 73 38 173 -15 98 -71 482 -80 554 -3 25 -10 74 -16 110 -5 36 -23
160 -39 275 -29 206 -45 302 -56 338 -5 14 -9 16 -20 6 -11 -9 -14 -7 -14 9 0
15 5 20 15 16 11 -5 15 1 15 22 0 22 -3 25 -12 16 -18 -18 -25 -15 -24 9 1 12
-5 24 -11 26 -8 3 -13 -3 -13 -14 0 -11 -6 -28 -14 -39 -13 -17 -14 -15 -14
27 1 43 2 45 28 41 15 -2 31 2 38 11 13 16 6 47 -10 47 -6 0 -4 7 3 17 10 12
11 17 2 20 -7 3 -10 16 -7 36 5 27 -103 821 -151 1112 -8 50 -17 113 -21 140
-24 196 -55 398 -64 414 -5 11 -22 29 -36 40 -31 24 -71 25 -214 5z m-975
-294 c3 -5 -1 -10 -10 -10 -9 0 -13 5 -10 10 3 6 8 10 10 10 2 0 7 -4 10 -10z
m-75 -52 c0 -16 -3 -19 -11 -11 -6 6 -8 16 -5 22 11 17 16 13 16 -11z m37 0
c-3 -8 -6 -5 -6 6 -1 11 2 17 5 13 3 -3 4 -12 1 -19z m-557 -38 c0 -5 -5 -10
-11 -10 -5 0 -7 5 -4 10 3 6 8 10 11 10 2 0 4 -4 4 -10z m-100 -50 c0 -5 -5
-10 -11 -10 -5 0 -7 5 -4 10 3 6 8 10 11 10 2 0 4 -4 4 -10z m-63 -22 c-3 -8
-6 -5 -6 6 -1 11 2 17 5 13 3 -3 4 -12 1 -19z m-2677 -208 c0 -5 -4 -10 -10
-10 -5 0 -10 5 -10 10 0 6 5 10 10 10 6 0 10 -4 10 -10z m-53 -6 c-3 -3 -12
-4 -19 -1 -8 3 -5 6 6 6 11 1 17 -2 13 -5z m4830 -350 c-3 -3 -12 -4 -19 -1
-8 3 -5 6 6 6 11 1 17 -2 13 -5z m33 -498 c0 -3 -4 -8 -10 -11 -5 -3 -10 -1
-10 4 0 6 5 11 10 11 6 0 10 -2 10 -4z m-30 -46 c0 -5 -5 -10 -11 -10 -5 0 -7
5 -4 10 3 6 8 10 11 10 2 0 4 -4 4 -10z m77 -195 c-2 -14 -6 -25 -10 -25 -4 0
-12 0 -17 0 -6 0 -3 11 6 25 21 32 26 32 21 0z m-10412 -65 c-3 -5 -11 -10
-16 -10 -6 0 -7 5 -4 10 3 6 11 10 16 10 6 0 7 -4 4 -10z m-25 -30 c0 -5 -2
-10 -4 -10 -3 0 -8 5 -11 10 -3 6 -1 10 4 10 6 0 11 -4 11 -10z m10457 -96
c-3 -3 -12 -4 -19 -1 -8 3 -5 6 6 6 11 1 17 -2 13 -5z m-10257 -814 c0 -5 -4
-10 -10 -10 -5 0 -10 5 -10 10 0 6 5 10 10 10 6 0 10 -4 10 -10z m9319 -690
c-23 -30 -39 -34 -47 -12 -2 7 2 10 11 6 10 -3 17 4 22 23 8 32 28 50 33 28 2
-8 -7 -28 -19 -45z m-76 25 c-3 -9 -8 -14 -10 -11 -3 3 -2 9 2 15 9 16 15 13
8 -4z m176 -32 c-10 -11 -10 -16 0 -22 9 -6 9 -10 -2 -20 -12 -9 -16 -8 -21 4
-7 19 14 66 26 59 5 -3 3 -12 -3 -21z m-159 -28 c0 -8 -4 -15 -10 -15 -5 0
-10 7 -10 15 0 8 5 15 10 15 6 0 10 -7 10 -15z m180 -50 c-7 -9 -15 -13 -17
-11 -7 7 7 26 19 26 6 0 6 -6 -2 -15z m-190 -5 c0 -5 -5 -10 -11 -10 -5 0 -7
5 -4 10 3 6 8 10 11 10 2 0 4 -4 4 -10z m-2557 -245 c-3 -9 -8 -14 -10 -11 -3
3 -2 9 2 15 9 16 15 13 8 -4z m47 -19 c0 -3 -4 -8 -10 -11 -5 -3 -10 -1 -10 4
0 6 5 11 10 11 6 0 10 -2 10 -4z m-350 -30 c0 -7 -8 -20 -17 -27 -15 -12 -16
-12 -10 4 4 10 7 23 7 28 0 5 5 9 10 9 6 0 10 -6 10 -14z m454 -11 c-6 -16
-24 -21 -24 -7 0 11 11 22 21 22 5 0 6 -7 3 -15z m79 0 c-3 -9 -8 -14 -10 -11
-3 3 -2 9 2 15 9 16 15 13 8 -4z m-2183 -199 c0 -2 -7 -6 -15 -10 -8 -3 -15
-1 -15 4 0 6 7 10 15 10 8 0 15 -2 15 -4z m-25 -22 c19 -14 19 -16 3 -25 -10
-6 -18 -19 -18 -29 0 -11 -4 -20 -9 -20 -6 0 -6 12 0 32 10 36 6 46 -13 31 -7
-6 -23 -13 -36 -16 -18 -4 -22 -2 -20 11 3 14 22 23 68 30 3 1 14 -6 25 -14z
m-2385 -369 c0 -8 -4 -15 -10 -15 -5 0 -7 7 -4 15 4 8 8 15 10 15 2 0 4 -7 4
-15z m60 -29 c0 -3 -4 -8 -10 -11 -5 -3 -10 -1 -10 4 0 6 5 11 10 11 6 0 10
-2 10 -4z"/>
<path d="M9515 6060 c-3 -5 1 -10 9 -10 9 0 16 5 16 10 0 6 -4 10 -9 10 -6 0
-13 -4 -16 -10z"/>
<path d="M9705 5373 c-60 -3 -637 -82 -644 -88 -4 -4 0 -31 124 -893 52 -365
98 -669 101 -674 4 -6 7 -24 8 -39 1 -16 3 -29 6 -30 11 -2 134 13 340 42 272
38 370 64 370 96 0 7 5 13 11 13 6 0 9 -7 5 -15 -3 -8 -1 -15 5 -15 5 0 14 11
19 25 11 28 30 34 30 9 0 -14 2 -14 16 -3 9 7 25 14 35 16 21 3 73 34 134 81
74 56 95 77 134 128 119 155 168 359 142 597 -25 226 -94 398 -210 519 l-67
71 -32 -18 c-17 -11 -33 -26 -35 -34 -4 -13 -5 -13 -6 2 -1 18 -36 24 -46 7
-13 -22 -22 1 -15 40 5 26 4 40 -3 40 -6 0 -2 6 9 14 10 8 15 18 11 22 -9 9
-41 -20 -43 -39 0 -6 -2 -20 -2 -29 -1 -9 -15 -23 -31 -31 -23 -11 -28 -12
-24 -2 2 8 11 16 19 19 20 8 17 27 -3 24 -15 -3 -18 5 -17 50 2 49 0 53 -25
58 -14 3 -37 10 -51 14 -14 5 -56 12 -95 15 -38 3 -79 7 -90 8 -11 2 -47 1
-80 0z m179 -73 c-5 -44 27 -37 41 9 5 17 10 20 15 11 4 -7 13 -9 19 -6 18 11
13 -2 -11 -29 -12 -14 -30 -25 -40 -25 -11 0 -28 -5 -39 -10 -30 -17 -44 -1
-21 24 10 11 22 29 25 39 10 26 15 20 11 -13z m116 -31 c-11 -19 -10 -21 4
-16 11 5 16 1 16 -13 0 -12 -10 -21 -30 -25 -16 -4 -30 -13 -30 -20 0 -9 -6
-12 -15 -9 -22 9 -19 21 15 50 16 15 32 36 36 46 3 11 8 17 11 15 2 -3 -1 -15
-7 -28z m130 -179 c0 -5 -5 -10 -11 -10 -5 0 -7 5 -4 10 3 6 8 10 11 10 2 0 4
-4 4 -10z m-228 -39 c154 -60 247 -219 278 -478 33 -274 -74 -469 -300 -543
-67 -21 -268 -55 -277 -47 -2 3 -17 92 -33 199 -16 106 -33 222 -39 258 -6 36
-15 103 -21 150 -5 47 -12 96 -14 110 -18 110 -47 342 -44 345 14 14 197 33
288 31 80 -2 119 -8 162 -25z m358 -142 c-7 -11 -14 -19 -16 -16 -7 7 7 37 17
37 6 0 5 -9 -1 -21z m100 -29 c0 -5 -5 -10 -11 -10 -5 0 -7 5 -4 10 3 6 8 10
11 10 2 0 4 -4 4 -10z m-970 -456 c0 -12 19 -19 43 -15 17 3 -4 -17 -23 -22
-13 -3 -20 0 -20 9 0 8 -9 14 -20 14 -17 0 -19 3 -8 19 13 21 28 19 28 -5z
m76 -41 c-2 -12 -13 -19 -32 -20 -18 -1 -22 0 -9 4 11 3 24 11 28 19 11 19 16
18 13 -3z m481 -439 c-3 -3 -12 -4 -19 -1 -8 3 -5 6 6 6 11 1 17 -2 13 -5z
m110 -76 c-3 -7 -5 -2 -5 12 0 14 2 19 5 13 2 -7 2 -19 0 -25z m-97 -2 c0 -11
-19 -15 -25 -6 -3 5 1 10 9 10 9 0 16 -2 16 -4z"/>
<path d="M10071 5289 c-13 -11 -21 -23 -17 -26 4 -4 11 -1 16 7 6 8 10 11 10
5 0 -5 5 -2 11 8 15 26 8 28 -20 6z"/>
<path d="M8243 5170 c-255 -36 -466 -69 -469 -73 -4 -3 33 -278 80 -609 48
-332 101 -697 117 -812 15 -115 31 -211 33 -214 5 -4 937 125 943 131 2 3 -37
280 -40 284 -1 1 -124 -16 -272 -37 -323 -47 -323 -47 -329 -17 -11 51 -57
389 -53 393 2 2 113 20 248 39 134 19 258 38 275 41 l30 5 -20 140 -19 139
-28 0 c-15 0 -135 -16 -268 -35 -132 -19 -247 -35 -255 -35 -10 0 -17 20 -24
68 -21 136 -33 275 -25 282 4 4 135 26 291 48 156 22 286 43 289 46 7 6 -27
269 -36 277 -3 3 -214 -24 -468 -61z"/>
<path d="M10170 5228 c0 -4 -8 -4 -17 -1 -17 6 -17 6 -1 -10 21 -22 44 -22 57
1 10 16 10 16 11 -1 0 -10 5 -15 11 -12 19 13 2 30 -29 30 -18 0 -32 -3 -32
-7z"/>
<path d="M7160 5016 c-109 -16 -145 -25 -148 -36 -3 -17 226 -1621 232 -1628
7 -6 329 39 339 48 4 4 -3 76 -16 161 -13 85 -66 452 -118 817 l-94 662 -25
-1 c-14 -1 -90 -11 -170 -23z"/>
<path d="M6417 4910 c-65 -10 -123 -20 -130 -23 -11 -4 0 -99 49 -438 35 -239
78 -514 97 -612 18 -97 30 -176 26 -175 -4 2 -125 154 -270 338 -145 184 -311
395 -369 468 -58 73 -138 175 -179 227 -50 64 -80 94 -90 91 -9 -3 -104 -17
-211 -32 -107 -15 -199 -30 -203 -34 -4 -4 -1 -49 7 -101 9 -52 61 -418 117
-814 56 -396 103 -721 105 -723 1 -2 70 7 153 20 133 20 151 25 151 41 0 65
-118 839 -161 1056 -16 84 -28 156 -24 159 3 3 12 -3 19 -14 8 -10 78 -100
156 -199 78 -99 154 -196 168 -215 38 -49 282 -363 387 -495 48 -60 103 -132
122 -158 l36 -48 66 7 c193 20 376 51 379 65 1 8 -50 373 -113 813 -63 439
-115 802 -115 807 0 12 -34 10 -173 -11z m-697 -414 c0 -2 -8 -10 -17 -17 -16
-13 -17 -12 -4 4 13 16 21 21 21 13z m23 -43 c-8 -3 -11 -15 -8 -31 5 -25 5
-25 -4 -4 -11 23 -26 29 -36 12 -3 -5 -11 -10 -17 -10 -7 0 -7 4 1 13 6 8 9
16 7 18 -2 2 12 5 32 5 21 1 31 0 25 -3z m-16 -119 c-3 -3 -12 -4 -19 -1 -8 3
-5 6 6 6 11 1 17 -2 13 -5z"/>
<path d="M4495 4634 c-121 -18 -316 -46 -433 -63 -117 -16 -215 -31 -218 -33
-3 -4 19 -172 47 -358 6 -36 11 -73 12 -82 1 -10 4 -18 7 -18 3 0 6 -21 7 -48
1 -51 153 -1124 160 -1132 5 -5 932 126 939 133 3 3 0 33 -6 67 -6 34 -13 73
-15 88 -13 105 -18 122 -34 122 -20 0 -515 -68 -552 -75 -25 -6 -27 -3 -38 51
-6 32 -11 70 -11 86 0 15 -2 28 -5 28 -2 0 -21 -16 -41 -35 -35 -35 -69 -50
-44 -20 10 12 10 15 -1 15 -8 0 6 11 31 24 24 13 46 29 48 36 3 7 0 10 -6 6
-6 -3 -13 -2 -17 4 -3 5 -1 10 6 10 11 0 7 101 -7 186 l-6 32 69 10 c263 40
345 52 398 57 95 10 93 8 83 63 -4 26 -13 89 -20 141 l-12 93 -44 -5 c-25 -3
-48 -10 -52 -17 -4 -7 -17 -10 -31 -6 -13 3 -19 3 -12 0 7 -3 9 -13 6 -21 -5
-12 -2 -15 10 -10 9 3 17 2 17 -3 0 -6 -4 -10 -10 -10 -5 0 -10 -7 -10 -16 0
-13 3 -14 15 -4 12 10 16 9 21 -3 8 -21 -6 -44 -16 -27 -12 19 -27 4 -32 -30
-3 -20 0 -30 9 -30 7 0 13 -4 13 -9 0 -5 -10 -7 -22 -4 -21 4 -22 3 -5 -10 15
-13 15 -16 2 -27 -8 -7 -15 -19 -15 -26 0 -8 -7 -14 -15 -14 -8 0 -15 -7 -15
-16 0 -8 -4 -13 -10 -9 -5 3 -19 0 -30 -7 -17 -11 -22 -11 -30 2 -7 12 -12 11
-31 -5 -22 -20 -22 -20 -11 1 6 12 18 24 27 28 8 3 15 16 15 30 0 14 5 28 12
32 7 4 8 3 4 -4 -4 -7 -3 -12 3 -12 6 0 8 -7 5 -15 -4 -8 -1 -15 4 -15 19 0
24 20 8 36 -12 11 -13 20 -6 34 8 16 8 18 -5 14 -21 -8 -19 16 3 32 14 11 15
15 3 26 -10 9 -12 9 -7 1 4 -8 1 -13 -7 -13 -19 0 -28 -23 -16 -41 13 -21 12
-23 -21 -47 -34 -25 -41 -13 -9 16 18 17 18 20 3 26 -13 5 -14 9 -4 21 10 12
9 15 -3 15 -9 0 -23 -12 -32 -27 l-16 -28 4 28 c2 15 0 30 -5 33 -5 3 -4 12 3
20 9 11 9 18 1 26 -9 9 -12 7 -12 -9 0 -30 -24 -47 -40 -28 -10 12 -9 15 5 15
10 0 15 3 12 7 -4 3 -2 12 4 20 9 9 8 13 0 13 -6 0 -11 -4 -11 -9 0 -5 -10 -9
-22 -8 -13 0 -32 -4 -43 -8 -20 -8 -20 -8 -1 14 l20 21 -70 -6 -69 -6 -23 172
c-15 113 -19 175 -13 179 6 4 133 24 283 45 150 20 280 39 288 42 14 4 13 20
-4 144 l-20 140 -35 -1 c-20 -1 -135 -16 -256 -35z m-520 -514 c3 -5 -8 -16
-25 -25 -35 -18 -39 -11 -7 16 26 22 24 21 32 9z m755 -250 c0 -5 -5 -10 -11
-10 -5 0 -7 5 -4 10 3 6 8 10 11 10 2 0 4 -4 4 -10z m-230 -112 c0 -19 -16 -5
-17 14 -2 18 0 20 7 8 5 -8 10 -18 10 -22z m50 -2 c0 -3 -4 -8 -10 -11 -5 -3
-10 -1 -10 4 0 6 5 11 10 11 6 0 10 -2 10 -4z m-36 -40 c-3 -9 -10 -13 -16
-10 -5 3 -4 12 3 20 15 18 22 13 13 -10z m-204 -282 c0 -8 -5 -12 -10 -9 -6 4
-8 11 -5 16 9 14 15 11 15 -7z"/>
<path d="M11590 4650 c0 -5 5 -10 10 -10 6 0 10 5 10 10 0 6 -4 10 -10 10 -5
0 -10 -4 -10 -10z"/>
<path d="M2675 4370 c-577 -77 -541 -70 -538 -95 3 -24 87 -609 103 -715 6
-41 38 -261 70 -488 32 -228 60 -415 62 -417 8 -8 560 77 646 100 429 114 648
429 601 865 -10 99 -47 260 -60 260 -4 0 -15 -10 -23 -22 -11 -15 -16 -17 -16
-8 0 8 7 24 15 34 18 24 20 59 3 54 -7 -3 -13 -11 -13 -19 0 -8 -18 -22 -39
-32 -27 -13 -35 -21 -27 -26 10 -6 9 -10 -4 -15 -13 -5 -16 0 -13 22 2 19 9
28 24 30 38 5 83 79 49 79 -8 0 -14 -7 -13 -15 2 -9 -11 -20 -34 -28 -33 -11
-38 -11 -38 2 0 7 -6 14 -12 14 -9 0 -8 4 2 10 22 14 30 12 24 -5 -10 -25 12
-17 26 10 7 14 19 25 27 25 7 0 13 5 13 11 0 5 -5 7 -12 3 -8 -5 -9 -2 -5 9 4
11 1 17 -8 17 -9 0 -15 -9 -15 -21 0 -14 -5 -19 -14 -16 -7 3 -19 0 -25 -6
-18 -18 -13 -2 14 44 14 24 25 47 25 52 0 16 -41 6 -52 -13 -16 -25 -28 -26
-28 0 0 11 11 27 26 36 l25 17 -37 39 c-28 27 -43 36 -57 32 -13 -4 -17 -2
-12 5 10 17 -14 41 -42 41 -13 0 -21 4 -18 10 10 17 -81 66 -190 102 -70 23
-296 33 -410 18z m712 -228 c-10 -10 -14 -21 -11 -24 3 -3 1 -9 -4 -12 -11 -7
-10 8 3 37 4 9 12 17 18 17 5 0 3 -8 -6 -18z m-462 -63 c70 -16 157 -63 178
-97 4 -7 19 -23 32 -36 32 -32 70 -116 96 -216 19 -71 23 -111 23 -235 0 -168
-13 -222 -77 -305 -18 -24 -37 -51 -43 -61 -6 -11 -14 -16 -17 -13 -3 4 -24
-9 -46 -28 -32 -27 -58 -38 -138 -56 -135 -30 -244 -46 -252 -35 -9 9 -43 227
-42 261 1 25 -9 28 -28 10 -11 -11 -12 -9 -6 10 5 18 2 22 -17 23 -13 1 -27 1
-31 0 -4 -1 -17 8 -29 19 -12 11 -16 20 -10 20 7 0 12 7 12 15 0 19 -19 20
-26 1 -3 -8 -12 -17 -20 -20 -8 -3 -13 -2 -10 3 3 4 -12 16 -34 26 -22 10 -40
21 -40 25 0 5 -11 11 -25 14 -16 4 -22 11 -19 21 4 8 1 15 -5 15 -19 0 31 71
58 83 25 10 25 11 4 14 -12 2 -36 -3 -53 -12 -31 -16 -31 -16 -20 5 17 31 5
53 -24 48 -22 -4 -19 0 19 39 24 23 49 43 57 43 20 1 51 27 39 34 -5 4 -12 2
-16 -4 -11 -17 -30 -11 -41 14 -6 13 -8 30 -4 37 6 8 9 7 11 -6 4 -15 7 -14
32 9 15 14 27 31 27 39 0 8 9 17 20 20 16 4 18 2 10 -13 -14 -26 -13 -90 1
-90 7 0 18 8 25 18 11 14 15 14 23 3 6 -10 10 -10 16 -1 4 7 1 16 -6 21 -11 7
-11 9 -1 9 7 0 17 -10 22 -22 16 -41 10 89 -9 207 -11 61 -16 114 -12 118 11
12 250 44 301 40 25 -2 68 -8 95 -14z m467 -231 c-8 -8 -9 -4 -5 13 4 13 8 18
11 10 2 -7 -1 -18 -6 -23z m-1076 -306 c-3 -6 -16 -7 -29 -4 -22 6 -22 6 3 12
28 8 35 6 26 -8z"/>
<path d="M2425 3740 c-3 -5 -1 -10 4 -10 6 0 11 5 11 10 0 6 -2 10 -4 10 -3 0
-8 -4 -11 -10z"/>
<path d="M2400 3710 c0 -5 4 -10 9 -10 6 0 13 5 16 10 3 6 -1 10 -9 10 -9 0
-16 -4 -16 -10z"/>
<path d="M2500 3690 c0 -5 5 -10 10 -10 6 0 10 5 10 10 0 6 -4 10 -10 10 -5 0
-10 -4 -10 -10z"/>
<path d="M2467 3669 c-4 -16 -3 -18 9 -8 7 6 11 15 8 20 -8 13 -11 11 -17 -12z"/>
<path d="M2425 3640 c-3 -5 -1 -10 4 -10 6 0 11 5 11 10 0 6 -2 10 -4 10 -3 0
-8 -4 -11 -10z"/>
<path d="M2482 3623 c-12 -13 -25 -37 -28 -51 -5 -26 -5 -26 10 -8 9 11 16 24
16 30 0 5 7 18 17 28 9 10 14 20 12 22 -2 3 -14 -7 -27 -21z"/>
<path d="M2370 3627 c-14 -7 -26 -21 -28 -31 -3 -15 0 -17 20 -11 22 8 47 32
48 48 0 10 -11 9 -40 -6z"/>
<path d="M2508 3603 c7 -3 16 -2 19 1 4 3 -2 6 -13 5 -11 0 -14 -3 -6 -6z"/>
<path d="M2410 3579 c0 -5 5 -7 10 -4 6 3 10 8 10 11 0 2 -4 4 -10 4 -5 0 -10
-5 -10 -11z"/>
<path d="M2360 3560 c0 -5 5 -10 10 -10 6 0 10 5 10 10 0 6 -4 10 -10 10 -5 0
-10 -4 -10 -10z"/>
<path d="M2500 3560 c-8 -5 -12 -11 -9 -14 3 -3 14 1 25 9 21 16 8 20 -16 5z"/>
<path d="M2442 3518 c-16 -16 -15 -25 4 -32 12 -4 15 -2 10 9 -4 13 -2 14 14
5 27 -14 50 -12 50 4 0 8 8 17 18 19 15 4 15 5 0 6 -9 0 -24 -7 -33 -16 -16
-16 -18 -16 -27 0 -11 20 -20 21 -36 5z"/>
<path d="M2397 3504 c-4 -4 -7 -14 -7 -23 0 -11 3 -12 11 -4 6 6 10 16 7 23
-2 6 -7 8 -11 4z"/>
<path d="M2450 3455 c-10 -13 -9 -15 8 -15 15 0 20 5 16 15 -4 8 -7 15 -9 15
-1 0 -8 -7 -15 -15z"/>
<path d="M2416 3423 c-9 -9 -7 -33 3 -33 12 0 22 28 12 34 -5 3 -11 3 -15 -1z"/>
<path d="M2470 3409 c0 -5 5 -7 10 -4 6 3 10 8 10 11 0 2 -4 4 -10 4 -5 0 -10
-5 -10 -11z"/>
<path d="M2603 3376 c7 -18 -16 -38 -39 -34 -9 2 -19 -3 -22 -11 -3 -10 0 -12
11 -8 9 3 19 2 22 -4 4 -5 10 -7 15 -4 5 3 11 1 15 -5 13 -21 23 1 15 34 -4
19 -5 37 -2 40 3 4 0 6 -7 6 -7 0 -11 -6 -8 -14z"/>
<path d="M4590 3981 c0 -6 5 -13 10 -16 6 -3 10 1 10 9 0 9 -4 16 -10 16 -5 0
-10 -4 -10 -9z"/>
<path d="M4620 3980 c0 -5 5 -10 10 -10 6 0 10 5 10 10 0 6 -4 10 -10 10 -5 0
-10 -4 -10 -10z"/>
<path d="M4660 3976 c0 -9 5 -16 10 -16 6 0 10 4 10 9 0 6 -4 13 -10 16 -5 3
-10 -1 -10 -9z"/>
<path d="M4513 3973 c-18 -7 -16 -23 2 -23 8 0 15 7 15 15 0 8 -1 15 -2 14 -2
0 -9 -3 -15 -6z"/>
<path d="M4546 3964 c-4 -9 -4 -19 -2 -21 8 -8 26 8 26 23 0 19 -16 18 -24 -2z"/>
<path d="M4545 3910 c-3 -5 -1 -10 4 -10 6 0 11 5 11 10 0 6 -2 10 -4 10 -3 0
-8 -4 -11 -10z"/>
<path d="M4667 3880 c-3 -13 0 -20 9 -20 15 0 19 26 5 34 -5 3 -11 -3 -14 -14z"/>
<path d="M4626 3834 c-9 -22 3 -32 14 -14 12 19 12 30 1 30 -5 0 -12 -7 -15
-16z"/>
<path d="M4670 3794 c0 -8 5 -12 10 -9 6 3 10 10 10 16 0 5 -4 9 -10 9 -5 0
-10 -7 -10 -16z"/>
<path d="M4600 3740 c0 -5 5 -10 10 -10 6 0 10 5 10 10 0 6 -4 10 -10 10 -5 0
-10 -4 -10 -10z"/>
<path d="M11494 3155 c-3 -8 -14 -17 -25 -20 -26 -8 -27 -58 -1 -53 10 2 17
13 17 27 0 12 8 27 18 32 19 11 23 29 7 29 -6 0 -13 -7 -16 -15z"/>
<path d="M11365 3120 c-3 -5 -1 -10 4 -10 6 0 11 5 11 10 0 6 -2 10 -4 10 -3
0 -8 -4 -11 -10z"/>
<path d="M11510 3104 c0 -9 5 -14 12 -12 18 6 21 28 4 28 -9 0 -16 -7 -16 -16z"/>
<path d="M11460 3045 c0 -9 6 -12 15 -9 8 4 15 10 15 15 0 5 -7 9 -15 9 -8 0
-15 -7 -15 -15z"/>
<path d="M7962 2613 c-13 -27 -8 -78 8 -78 10 0 14 14 15 47 0 50 -8 61 -23
31z"/>
<path d="M7819 2588 c0 -2 -3 -18 -5 -35 -5 -35 6 -43 26 -18 9 11 10 15 1 15
-8 0 -10 8 -6 20 4 11 2 20 -4 20 -6 0 -11 -1 -12 -2z"/>
<path d="M7860 2571 c0 -12 5 -21 10 -21 6 0 10 6 10 14 0 8 -4 18 -10 21 -5
3 -10 -3 -10 -14z"/>
<path d="M7760 2520 c-8 -5 -12 -11 -9 -14 7 -8 49 5 49 15 0 12 -21 11 -40
-1z"/>
<path d="M6187 2474 c-13 -13 -7 -24 14 -24 11 0 19 5 17 12 -5 14 -22 21 -31
12z"/>
</g>
</svg>
